{
    "page": 1,
    "total_results": 88050,
    "total_pages": 4403,
    "results": [
      {
        "vote_count": 61,
        "id": 355547,
        "video": false,
        "vote_average": 4.5,
        "title": "The Star",
        "popularity": 344.757932,
        "poster_path": "/tEbDvivUfsCupngKIfMJJ725eAD.jpg",
        "original_language": "en",
        "original_title": "The Star",
        "genre_ids": [
          35,
          16,
          12
        ],
        "backdrop_path": "/iJ5dkwIHQnq8dfmwSLh7dpETNhi.jpg",
        "adult": false,
        "overview": "A small but brave donkey and his animal friends become the unsung heroes of the greatest story ever told, the first Christmas.",
        "release_date": "2017-11-15"
      },
      {
        "vote_count": 6308,
        "id": 321612,
        "video": false,
        "vote_average": 6.8,
        "title": "Beauty and the Beast",
        "popularity": 362.420724,
        "poster_path": "/tWqifoYuwLETmmasnGHO7xBjEtt.jpg",
        "original_language": "en",
        "original_title": "Beauty and the Beast",
        "genre_ids": [
          10751,
          14,
          10749
        ],
        "backdrop_path": "/6aUWe0GSl69wMTSWWexsorMIvwU.jpg",
        "adult": false,
        "overview": "A live-action adaptation of Disney's version of the classic tale of a cursed prince and a beautiful young woman who helps him break the spell.",
        "release_date": "2017-03-16"
      },
      {
        "vote_count": 2646,
        "id": 281338,
        "video": false,
        "vote_average": 6.7,
        "title": "War for the Planet of the Apes",
        "popularity": 223.648996,
        "poster_path": "/3vYhLLxrTtZLysXtIWktmd57Snv.jpg",
        "original_language": "en",
        "original_title": "War for the Planet of the Apes",
        "genre_ids": [
          18,
          878,
          10752
        ],
        "backdrop_path": "/ulMscezy9YX0bhknvJbZoUgQxO5.jpg",
        "adult": false,
        "overview": "Caesar and his apes are forced into a deadly conflict with an army of humans led by a ruthless Colonel. After the apes suffer unimaginable losses, Caesar wrestles with his darker instincts and begins his own mythic quest to avenge his kind. As the journey finally brings them face to face, Caesar and the Colonel are pitted against each other in an epic battle that will determine the fate of both their species and the future of the planet.",
        "release_date": "2017-07-11"
      },
      {
        "vote_count": 6485,
        "id": 238,
        "video": false,
        "vote_average": 8.5,
        "title": "The Godfather",
        "popularity": 86.106724,
        "poster_path": "/rPdtLWNsZmAtoZl9PK7S2wE3qiS.jpg",
        "original_language": "en",
        "original_title": "The Godfather",
        "genre_ids": [
          18,
          80
        ],
        "backdrop_path": "/6xKCYgH16UuwEGAyroLU6p8HLIn.jpg",
        "adult": false,
        "overview": "Spanning the years 1945 to 1955, a chronicle of the fictional Italian-American Corleone crime family. When organized crime family patriarch, Vito Corleone barely survives an attempt on his life, his youngest son, Michael steps in to take care of the would-be killers, launching a campaign of bloody revenge.",
        "release_date": "1972-03-14"
      },
      {
        "vote_count": 12671,
        "id": 24428,
        "video": false,
        "vote_average": 7.5,
        "title": "The Avengers",
        "popularity": 84.374696,
        "poster_path": "/cezWGskPY5x7GaglTTRN4Fugfb8.jpg",
        "original_language": "en",
        "original_title": "The Avengers",
        "genre_ids": [
          878,
          28,
          12
        ],
        "backdrop_path": "/hbn46fQaRmlpBuUrEiFqv0GDL6Y.jpg",
        "adult": false,
        "overview": "When an unexpected enemy emerges and threatens global safety and security, Nick Fury, director of the international peacekeeping agency known as S.H.I.E.L.D., finds himself in need of a team to pull the world back from the brink of disaster. Spanning the globe, a daring recruitment effort begins!",
        "release_date": "2012-04-25"
      },
      {
        "vote_count": 69,
        "id": 371638,
        "video": false,
        "vote_average": 7.4,
        "title": "The Disaster Artist",
        "popularity": 254.257927,
        "poster_path": "/jj84nF5vYRD0HUTowBKcrKk8hZP.jpg",
        "original_language": "en",
        "original_title": "The Disaster Artist",
        "genre_ids": [
          18,
          35,
          36
        ],
        "backdrop_path": "/bAI7aPHQcvSZXvt7L11kMJdS0Gm.jpg",
        "adult": false,
        "overview": "An aspiring actor in Hollywood meets an enigmatic stranger by the name of Tommy Wiseau, the meeting leads the actor down a path nobody could have predicted; creating the worst movie ever made.",
        "release_date": "2017-12-01"
      },
      {
        "vote_count": 4158,
        "id": 337339,
        "video": false,
        "vote_average": 6.8,
        "title": "The Fate of the Furious",
        "popularity": 67.701096,
        "poster_path": "/euTJvayBRLRQI5RI5ayQhWfwQ4H.jpg",
        "original_language": "en",
        "original_title": "The Fate of the Furious",
        "genre_ids": [
          12,
          28,
          80,
          53
        ],
        "backdrop_path": "/jzdnhRhG0dsuYorwvSqPqqnM1cV.jpg",
        "adult": false,
        "overview": "When a mysterious woman seduces Dom into the world of crime and a betrayal of those closest to him, the crew face trials that will test them as never before.",
        "release_date": "2017-04-12"
      },
      {
        "vote_count": 1629,
        "id": 343668,
        "video": false,
        "vote_average": 7.1,
        "title": "Kingsman: The Golden Circle",
        "popularity": 216.255222,
        "poster_path": "/34xBL6BXNYFqtHO9zhcgoakS4aP.jpg",
        "original_language": "en",
        "original_title": "Kingsman: The Golden Circle",
        "genre_ids": [
          28,
          12,
          35
        ],
        "backdrop_path": "/uExPmkOHJySrbJyJDJylHDqaT58.jpg",
        "adult": false,
        "overview": "When an attack on the Kingsman headquarters takes place and a new villain rises, Eggsy and Merlin are forced to work together with the American agency known as the Statesman to save the world.",
        "release_date": "2017-09-20"
      },
      {
        "vote_count": 811,
        "id": 181808,
        "video": false,
        "vote_average": 7.5,
        "title": "Star Wars: The Last Jedi",
        "popularity": 465.077297,
        "poster_path": "/xGWVjewoXnJhvxKW619cMzppJDQ.jpg",
        "original_language": "en",
        "original_title": "Star Wars: The Last Jedi",
        "genre_ids": [
          28,
          12,
          14,
          878
        ],
        "backdrop_path": "/5Iw7zQTHVRBOYpA0V6z0yypOPZh.jpg",
        "adult": false,
        "overview": "Rey develops her newly discovered abilities with the guidance of Luke Skywalker, who is unsettled by the strength of her powers. Meanwhile, the Resistance prepares to do battle with the First Order.",
        "release_date": "2017-12-13"
      },
      {
        "vote_count": 9413,
        "id": 120,
        "video": false,
        "vote_average": 8.1,
        "title": "The Lord of the Rings: The Fellowship of the Ring",
        "popularity": 58.78919,
        "poster_path": "/bxVxZb5O9OxCO0oRUNdCnpy9NST.jpg",
        "original_language": "en",
        "original_title": "The Lord of the Rings: The Fellowship of the Ring",
        "genre_ids": [
          12,
          14,
          28
        ],
        "backdrop_path": "/pIUvQ9Ed35wlWhY2oU6OmwEsmzG.jpg",
        "adult": false,
        "overview": "Young hobbit Frodo Baggins, after inheriting a mysterious ring from his uncle Bilbo, must leave his home in order to keep it from falling into the hands of its evil creator. Along the way, a fellowship is formed to protect the ringbearer and make sure that the ring arrives at its final destination: Mt. Doom, the only place where it can be destroyed.",
        "release_date": "2001-12-18"
      },
      {
        "vote_count": 4,
        "id": 245842,
        "video": false,
        "vote_average": 0,
        "title": "The King's Daughter",
        "popularity": 28.337503,
        "poster_path": "/xBLskcmADJYJrDw3O04XdMvrE2m.jpg",
        "original_language": "en",
        "original_title": "The King's Daughter",
        "genre_ids": [
          14,
          28,
          12
        ],
        "backdrop_path": "/pNwa9Lv3kWDiBfjJHCTzBRCwj5Q.jpg",
        "adult": false,
        "overview": "King Louis XIV's quest for immortality leads him to capture and steal a mermaid's life force, a move that is further complicated by his illegitimate daughter's discovery of the creature.",
        "release_date": "2017-12-30"
      },
      {
        "vote_count": 1166,
        "id": 390043,
        "video": false,
        "vote_average": 6.6,
        "title": "The Hitman's Bodyguard",
        "popularity": 112.600475,
        "poster_path": "/5CGjlz2vyBhW5xHW4eNOZIdgzYq.jpg",
        "original_language": "en",
        "original_title": "The Hitman's Bodyguard",
        "genre_ids": [
          28,
          35
        ],
        "backdrop_path": "/7KsqfXDECZMryX1Rv4RKsT7SIjQ.jpg",
        "adult": false,
        "overview": "The world's top bodyguard gets a new client, a hit man who must testify at the International Court of Justice. They must put their differences aside and work together to make it to the trial on time.",
        "release_date": "2017-08-16"
      },
      {
        "vote_count": 8512,
        "id": 122,
        "video": false,
        "vote_average": 8.2,
        "title": "The Lord of the Rings: The Return of the King",
        "popularity": 50.339786,
        "poster_path": "/uexxR7Kw1qYbZk0RYaF9Rx5ykbj.jpg",
        "original_language": "en",
        "original_title": "The Lord of the Rings: The Return of the King",
        "genre_ids": [
          12,
          14,
          28
        ],
        "backdrop_path": "/8BPZO0Bf8TeAy8znF43z8soK3ys.jpg",
        "adult": false,
        "overview": "Aragorn is revealed as the heir to the ancient kings as he, Gandalf and the other members of the broken fellowship struggle to save Gondor from Sauron's forces. Meanwhile, Frodo and Sam bring the ring closer to the heart of Mordor, the dark lord's realm.",
        "release_date": "2003-12-01"
      },
      {
        "vote_count": 3148,
        "id": 156022,
        "video": false,
        "vote_average": 7.1,
        "title": "The Equalizer",
        "popularity": 49.019117,
        "poster_path": "/2eQfjqlvPAxd9aLDs8DvsKLnfed.jpg",
        "original_language": "en",
        "original_title": "The Equalizer",
        "genre_ids": [
          53,
          28,
          80
        ],
        "backdrop_path": "/b1uY9m6sZLLfa8jxtBvZg9esSvd.jpg",
        "adult": false,
        "overview": "In The Equalizer, Denzel Washington plays McCall, a man who believes he has put his mysterious past behind him and dedicated himself to beginning a new, quiet life. But when McCall meets Teri (Chloë Grace Moretz), a young girl under the control of ultra-violent Russian gangsters, he can’t stand idly by – he has to help her. Armed with hidden skills that allow him to serve vengeance against anyone who would brutalize the helpless, McCall comes out of his self-imposed retirement and finds his desire for justice reawakened. If someone has a problem, if the odds are stacked against them, if they have nowhere else to turn, McCall will help. He is The Equalizer.",
        "release_date": "2014-09-24"
      },
      {
        "vote_count": 760,
        "id": 392044,
        "video": false,
        "vote_average": 6.8,
        "title": "Murder on the Orient Express",
        "popularity": 348.371244,
        "poster_path": "/iBlfxlw8qwtUS0R8YjIU7JtM6LM.jpg",
        "original_language": "en",
        "original_title": "Murder on the Orient Express",
        "genre_ids": [
          80,
          18,
          9648
        ],
        "backdrop_path": "/tvKcA4OFUiZkNeTJmmTkNqKHMMg.jpg",
        "adult": false,
        "overview": "Genius Belgian detective Hercule Poirot investigates the murder of an American tycoon aboard the Orient Express train.",
        "release_date": "2017-11-03"
      },
      {
        "vote_count": 5631,
        "id": 9806,
        "video": false,
        "vote_average": 7.4,
        "title": "The Incredibles",
        "popularity": 47.530776,
        "poster_path": "/huGDgQRB24IzkJLNqe5zq1pdvEE.jpg",
        "original_language": "en",
        "original_title": "The Incredibles",
        "genre_ids": [
          28,
          12,
          16,
          10751
        ],
        "backdrop_path": "/iGknrkEyebPFmpQoLGy5L0utVxz.jpg",
        "adult": false,
        "overview": "Bob Parr has given up his superhero days to log in time as an insurance adjuster and raise his three children with his formerly heroic wife in suburbia. But when he receives a mysterious assignment, it's time to get back into costume.",
        "release_date": "2004-11-05"
      },
      {
        "vote_count": 2663,
        "id": 158015,
        "video": false,
        "vote_average": 6,
        "title": "The Purge",
        "popularity": 46.975137,
        "poster_path": "/tGGJOuLHX7UDlTz57sjfhW1qreP.jpg",
        "original_language": "en",
        "original_title": "The Purge",
        "genre_ids": [
          878,
          27,
          53
        ],
        "backdrop_path": "/z6LEqUrlfK0oM3xuTbXABVdaX0Y.jpg",
        "adult": false,
        "overview": "Given the country's overcrowded prisons, the U.S. government begins to allow 12-hour periods of time in which all illegal activity is legal. During one of these free-for-alls, a family must protect themselves from a home invasion.",
        "release_date": "2013-05-31"
      },
      {
        "vote_count": 0,
        "id": 446354,
        "video": false,
        "vote_average": 0,
        "title": "The Post",
        "popularity": 44.793536,
        "poster_path": "/5765ORvdKVX5bWmhEjjiOqLk3TH.jpg",
        "original_language": "en",
        "original_title": "The Post",
        "genre_ids": [
          18,
          36
        ],
        "backdrop_path": "/8sb4aBST28vN3rBz704XJczS0Ld.jpg",
        "adult": false,
        "overview": "A cover-up that spanned four U.S. Presidents pushed the country's first female newspaper publisher and a hard-driving editor to join an unprecedented battle between journalist and government. Inspired by true events.",
        "release_date": "2017-12-22"
      },
      {
        "vote_count": 1926,
        "id": 1635,
        "video": false,
        "vote_average": 6.5,
        "title": "The Island",
        "popularity": 26.084034,
        "poster_path": "/erprD7GIkvZz2KM4Z35eyTJKZMI.jpg",
        "original_language": "en",
        "original_title": "The Island",
        "genre_ids": [
          28,
          53,
          878,
          12
        ],
        "backdrop_path": "/7gckgf6lmlKsjtkmS8O0oT3iEev.jpg",
        "adult": false,
        "overview": "In 2019, Lincoln Six-Echo is a resident of a seemingly \"Utopian\" but contained facility. Like all of the inhabitants of this carefully-controlled environment, Lincoln hopes to be chosen to go to The Island — reportedly the last uncontaminated location on the planet. But Lincoln soon discovers that everything about his existence is a lie.",
        "release_date": "2005-07-20"
      },
      {
        "vote_count": 39,
        "id": 399055,
        "video": false,
        "vote_average": 7.2,
        "title": "The Shape of Water",
        "popularity": 136.128309,
        "poster_path": "/iLYLADGA5oKGM92Ns1j9CDgk3iI.jpg",
        "original_language": "en",
        "original_title": "The Shape of Water",
        "genre_ids": [
          18,
          14,
          10749
        ],
        "backdrop_path": "/6rhXCI4I6FRTWMka7hz39dQCiL7.jpg",
        "adult": false,
        "overview": "An other-worldly story, set against the backdrop of Cold War era America circa 1962, where a mute janitor working at a lab falls in love with an amphibious man being held captive there and devises a plan to help him escape.",
        "release_date": "2017-12-01"
      }
    ]
  }